{
	"variables": [],
	"info": {
		"name": "Lambda",
		"_postman_id": "d8531757-f89e-0822-630d-3e5ebfb79887",
		"description": "Emplyoee storage service",
		"schema": "https://schema.getpostman.com/json/collection/v2.0.0/collection.json"
	},
	"item": [
		{
			"name": "company",
			"description": "",
			"item": [
				{
					"name": "Get list of all companies",
					"request": {
						"url": "http://localhost:8080/companies",
						"method": "GET",
						"header": [],
						"body": {},
						"description": ""
					},
					"response": []
				},
				{
					"name": "Get a specific company",
					"request": {
						"url": "http://localhost:8080/companies/1",
						"method": "GET",
						"header": [],
						"body": {},
						"description": ""
					},
					"response": []
				},
				{
					"name": "Post a new company",
					"request": {
						"url": "http://localhost:8080/companies/",
						"method": "POST",
						"header": [
							{
								"key": "Content-Type",
								"value": "application/json",
								"description": ""
							}
						],
						"body": {
							"mode": "raw",
							"raw": "{\n\t\"name\" : \"Amazon\"\n}"
						},
						"description": ""
					},
					"response": []
				},
				{
					"name": "Delete a company",
					"request": {
						"url": "http://localhost:8080/companies/1",
						"method": "DELETE",
						"header": [],
						"body": {},
						"description": ""
					},
					"response": []
				}
			]
		},
		{
			"name": "employees",
			"description": "",
			"item": [
				{
					"name": "Get list of all employees",
					"request": {
						"url": "http://localhost:8080/employees",
						"method": "GET",
						"header": [
							{
								"key": "Content-Type",
								"value": "application/json",
								"description": ""
							}
						],
						"body": {
							"mode": "raw",
							"raw": "{\n    \"name\": \"Jason\",\n    \"surname\": \"Statham\",\n    \"email\": \"jasonstatham@expendables.com\",\n    \"address\": \"Holywood\",\n    \"salary\": 50000,\n    \"company_id\" : 2\n}"
						},
						"description": ""
					},
					"response": []
				},
				{
					"name": "Get a specific employee",
					"request": {
						"url": "http://localhost:8080/employees/1",
						"method": "GET",
						"header": [
							{
								"key": "Content-Type",
								"value": "application/json",
								"description": ""
							}
						],
						"body": {
							"mode": "raw",
							"raw": "{\n    \"name\": \"Jason\",\n    \"surname\": \"Statham\",\n    \"email\": \"jasonstatham@expendables.com\",\n    \"address\": \"Holywood\",\n    \"salary\": 50000,\n    \"company_id\" : 2\n}"
						},
						"description": ""
					},
					"response": []
				},
				{
					"name": "Post a new employee",
					"request": {
						"url": "http://localhost:8080/employees",
						"method": "POST",
						"header": [
							{
								"key": "Content-Type",
								"value": "application/json",
								"description": ""
							}
						],
						"body": {
							"mode": "raw",
							"raw": "{\n\t\"name\" : \"Jeff\",\n    \"surname\": \"Bezos\",\n    \"email\": \"jeffbezos@amazon.com\",\n    \"address\": \"Silicon Valley\",\n    \"salary\": 125000,\n    \"company_id\" : 2\n}"
						},
						"description": ""
					},
					"response": []
				},
				{
					"name": "Update an employee",
					"request": {
						"url": "http://localhost:8080/employees/1",
						"method": "PATCH",
						"header": [
							{
								"key": "Content-Type",
								"value": "application/json",
								"description": ""
							}
						],
						"body": {
							"mode": "raw",
							"raw": "{\n       \"id\": 5,\n        \"name\": \"Jeff\",\n        \"surname\": \"Bezos\",\n        \"email\": \"jeffbezos@newmail.com\",\n        \"address\": \"Thessaloniki\",\n        \"salary\": 126000\n}"
						},
						"description": ""
					},
					"response": []
				},
				{
					"name": "Delete an employee",
					"request": {
						"url": "http://localhost:8080/employees/2",
						"method": "DELETE",
						"header": [],
						"body": {},
						"description": ""
					},
					"response": []
				}
			]
		},
		{
			"name": "stats",
			"description": "",
			"item": [
				{
					"name": "Get salary statistics about employees",
					"request": {
						"url": {
							"raw": "http://localhost:8080/stats/companies/1?salary=sum",
							"protocol": "http",
							"host": [
								"localhost"
							],
							"port": "8080",
							"path": [
								"stats",
								"companies",
								"1"
							],
							"query": [
								{
									"key": "salary",
									"value": "sum",
									"equals": true,
									"description": ""
								}
							],
							"variable": []
						},
						"method": "GET",
						"header": [
							{
								"key": "Content-Type",
								"value": "application/json",
								"description": ""
							}
						],
						"body": {
							"mode": "raw",
							"raw": "{\n    \"name\": \"Jason\",\n    \"surname\": \"Statham\",\n    \"email\": \"jasonstatham2@expendables.com\",\n    \"address\": \"Holywood\",\n    \"salary\": 50000,\n    \"company_id\" : 2\n}"
						},
						"description": ""
					},
					"response": []
				}
			]
		}
	]
}